[WARN ] 2019-11-28T19:30:31,276Z [main] spi.SqlExceptionHelper. - SQL Warning Code: 0, SQLState: 00000
[WARN ] 2019-11-28T19:30:31,276Z [main] spi.SqlExceptionHelper. - constraint "host_and_name_constraint" of relation "accounts" does not exist, skipping
[WARN ] 2019-11-28T19:30:31,291Z [main] spi.SqlExceptionHelper. - SQL Warning Code: 0, SQLState: 00000
[WARN ] 2019-11-28T19:30:31,291Z [main] spi.SqlExceptionHelper. - constraint "uk_q8730aou96d750g511j8hqhag" of relation "accounts" does not exist, skipping
